<?xml version="1.0" encoding="utf-8"?>
<!-- Generator: Adobe Illustrator 15.1.0, SVG Export Plug-In . SVG Version: 6.00 Build 0)  -->
<!DOCTYPE svg PUBLIC "-//W3C//DTD SVG 1.1//EN" "http://www.w3.org/Graphics/SVG/1.1/DTD/svg11.dtd">
<svg version="1.1" id="Layer_1" xmlns="http://www.w3.org/2000/svg" xmlns:xlink="http://www.w3.org/1999/xlink" x="0px" y="0px"
	 width="595.28px" height="841.89px" viewBox="0 0 595.28 841.89" enable-background="new 0 0 595.28 841.89" xml:space="preserve">
<g>
	<g>
		<g>
			<rect x="57.38" y="59.257" fill="#FFFFFF" stroke="#000000" stroke-miterlimit="10" width="221.771" height="293.506"/>
			<rect x="316.129" y="59.257" fill="#FFFFFF" stroke="#000000" stroke-miterlimit="10" width="221.771" height="293.506"/>
			<g>
				<g>
					<line fill="none" stroke="#000000" stroke-miterlimit="10" x1="316.129" y1="206.01" x2="320.129" y2="206.01"/>
					
						<line fill="none" stroke="#000000" stroke-miterlimit="10" stroke-dasharray="7.9175,7.9175" x1="328.046" y1="206.01" x2="529.941" y2="206.01"/>
					<line fill="none" stroke="#000000" stroke-miterlimit="10" x1="533.9" y1="206.01" x2="537.9" y2="206.01"/>
				</g>
			</g>
			
				<line fill="none" stroke="#000000" stroke-miterlimit="10" stroke-dasharray="8" x1="427.016" y1="59.257" x2="427.016" y2="352.763"/>
		</g>
		<g>
			<rect x="61.122" y="448.867" fill="#FFFFFF" stroke="#000000" stroke-miterlimit="10" width="473.036" height="150.648"/>
			<g>
				<rect x="61.122" y="631.984" fill="#FFFFFF" stroke="#000000" stroke-miterlimit="10" width="473.036" height="150.648"/>
				
					<line fill="none" stroke="#000000" stroke-miterlimit="10" stroke-dasharray="8" x1="297.64" y1="631.984" x2="297.64" y2="782.633"/>
				
					<line fill="none" stroke="#000000" stroke-miterlimit="10" stroke-dasharray="8" x1="414.369" y1="631.984" x2="414.369" y2="782.633"/>
				
					<line fill="none" stroke="#000000" stroke-miterlimit="10" stroke-dasharray="8" x1="179.304" y1="631.984" x2="179.304" y2="782.633"/>
			</g>
		</g>
	</g>
	<text transform="matrix(1 0 0 1 63.0005 49.666)" font-family="'MyriadPro-Regular'" font-size="12">option #1</text>
	<text transform="matrix(1 0 0 1 61.1221 436)" font-family="'MyriadPro-Regular'" font-size="12">option #2</text>
	<text transform="matrix(1 0 0 1 70.334 83.3335)" font-family="'MyriadPro-Regular'" font-size="12">1. pattern</text>
	<text transform="matrix(1 0 0 1 330.334 83.3335)" font-family="'MyriadPro-Regular'" font-size="12">2. pattern</text>
	<text transform="matrix(1 0 0 1 441 83.3335)" font-family="'MyriadPro-Regular'" font-size="12">3. pattern</text>
	<text transform="matrix(1 0 0 1 330.334 228.667)" font-family="'MyriadPro-Regular'" font-size="12">4. pattern</text>
	<text transform="matrix(1 0 0 1 441 228.667)"><tspan x="0" y="0" font-family="'MyriadPro-Regular'" font-size="12">5. code </tspan><tspan x="38.472" y="0" font-family="'AdobeMyungjoStd-Medium-KSCpc-EUC-H'" font-size="12">및 설명</tspan></text>
	<text transform="matrix(1 0 0 1 431 655.334)"><tspan x="0" y="0" font-family="'MyriadPro-Regular'" font-size="12">5. code </tspan><tspan x="38.472" y="0" font-family="'AdobeMyungjoStd-Medium-KSCpc-EUC-H'" font-size="12">및 설명</tspan></text>
	<text transform="matrix(1 0 0 1 193.001 340.6675)"><tspan x="0" y="0" font-family="'MyriadPro-Regular'" font-size="12">pattern </tspan><tspan x="39.695" y="0" font-family="'AdobeMyungjoStd-Medium-KSCpc-EUC-H'" font-size="12">인자값</tspan></text>
	<text transform="matrix(1 0 0 1 75.9702 472.2773)" font-family="'MyriadPro-Regular'" font-size="12">1. pattern</text>
	<text transform="matrix(1 0 0 1 447.6367 588.6113)"><tspan x="0" y="0" font-family="'MyriadPro-Regular'" font-size="12">pattern </tspan><tspan x="39.695" y="0" font-family="'AdobeMyungjoStd-Medium-KSCpc-EUC-H'" font-size="12">인자값</tspan></text>
	<text transform="matrix(1 0 0 1 347.002 195.334)"><tspan x="0" y="0" font-family="'MyriadPro-Regular'" font-size="12">pattern </tspan><tspan x="39.695" y="0" font-family="'AdobeMyungjoStd-Medium-KSCpc-EUC-H'" font-size="12">인자값</tspan></text>
	<text transform="matrix(1 0 0 1 75.9702 655.334)" font-family="'MyriadPro-Regular'" font-size="12">2. pattern</text>
	<text transform="matrix(1 0 0 1 92.6382 767.334)"><tspan x="0" y="0" font-family="'MyriadPro-Regular'" font-size="12">pattern </tspan><tspan x="39.695" y="0" font-family="'AdobeMyungjoStd-Medium-KSCpc-EUC-H'" font-size="12">인자값</tspan></text>
	<text transform="matrix(1 0 0 1 347.002 340.6675)"><tspan x="0" y="0" font-family="'MyriadPro-Regular'" font-size="12">pattern </tspan><tspan x="39.695" y="0" font-family="'AdobeMyungjoStd-Medium-KSCpc-EUC-H'" font-size="12">인자값</tspan></text>
	<text transform="matrix(1 0 0 1 307.7949 655.334)" font-family="'MyriadPro-Regular'" font-size="12">4. pattern</text>
	<text transform="matrix(1 0 0 1 324.4629 767.334)"><tspan x="0" y="0" font-family="'MyriadPro-Regular'" font-size="12">pattern </tspan><tspan x="39.695" y="0" font-family="'AdobeMyungjoStd-Medium-KSCpc-EUC-H'" font-size="12">인자값</tspan></text>
	<text transform="matrix(1 0 0 1 457.668 195.334)"><tspan x="0" y="0" font-family="'MyriadPro-Regular'" font-size="12">pattern </tspan><tspan x="39.695" y="0" font-family="'AdobeMyungjoStd-Medium-KSCpc-EUC-H'" font-size="12">인자값</tspan></text>
	<text transform="matrix(1 0 0 1 193.001 655.334)" font-family="'MyriadPro-Regular'" font-size="12">3. pattern</text>
	<text transform="matrix(1 0 0 1 209.668 767.334)"><tspan x="0" y="0" font-family="'MyriadPro-Regular'" font-size="12">pattern </tspan><tspan x="39.695" y="0" font-family="'AdobeMyungjoStd-Medium-KSCpc-EUC-H'" font-size="12">인자값</tspan></text>
	<rect fill="none" width="595.28" height="841.89"/>
</g>
</svg>
